{
    "code": "astronomical-unit",
    "topic": "astronomy",
    "question_text": "What is an Astronomical Unit?",
    "answers": [
        {
            "answer_text": "The average distance from the Earth to the Sun",
            "is_correct": true,
            "explanation": "An Astronomical Unit (AU) is a unit of length used in astronomy that is roughly equal to the average distance from the Earth to the Sun, which is about 149.6 million kilometers. It is used to describe distances within our solar system."
        },
        {
            "answer_text": "The distance between the Sun and Jupiter",
            "is_correct": false,
            "explanation": "While Jupiter is one of the largest planets in our solar system, it is not used to define an Astronomical Unit."
        },
        {
            "answer_text": "The distance between the Sun and Pluto",
            "is_correct": false,
            "explanation": "Pluto is a dwarf planet that is located in the outer reaches of our solar system, so it is not used to define an Astronomical Unit."
        },
        {
            "answer_text": "The distance between the Earth and the Moon",
            "is_correct": false,
            "explanation": "While the distance between the Earth and the Moon is a useful unit of measure, it is not the basis for an Astronomical Unit."
        },
        {
            "answer_text": "The distance light travels in one day",
            "is_correct": false,
            "explanation": "While the distance light travels in a day is an interesting unit of measure, it is not the basis for an Astronomical Unit."
        },
        {
            "answer_text": "The distance between the Earth and Mars",
            "is_correct": false,
            "explanation": "Mars is one of the planets in our solar system, but it is not used to define an Astronomical Unit."
        }
    ]
}