{
    "code": "longest-river",
    "topic": "geography",
    "question_text": "Which river is the longest in the world?",
    "answers": [
        {
            "answer_text": "Nile River",
            "is_correct": true,
            "explanation": "The Nile River is widely regarded as the longest river in the world, stretching approximately 6,650 kilometers from its source in Burundi to its delta in Egypt."
        },
        {
            "answer_text": "Amazon River",
            "is_correct": false,
            "explanation": "The Amazon River is the world's largest river by discharge volume, but it is not the longest. The Nile River holds that distinction."
        },
        {
            "answer_text": "Yangtze River",
            "is_correct": false,
            "explanation": "The Yangtze River is the longest river in Asia, but it is not the longest river globally. The Nile River is longer."
        },
        {
            "answer_text": "Mississippi River",
            "is_correct": false,
            "explanation": "The Mississippi River is the second-longest river in North America, but it is not the longest river in the world. The Nile River has a greater length."
        },
        {
            "answer_text": "Congo River",
            "is_correct": false,
            "explanation": "The Congo River is the second-longest river in Africa, but it is not the longest worldwide. The Nile River surpasses it in length."
        },
        {
            "answer_text": "Danube River",
            "is_correct": false,
            "explanation": "The Danube River is the second-longest river in Europe, but it is not the longest river globally. The Nile River has a greater length."
        }
    ]
}
